hyperparameter-tuning – Lab 6
…
best-performing bagged tree models appear in the region with low cost-complexity values (between -10 and -7.5 on the log scale) and smaller minimal node sizes (between 5 and 15). These configurations have the best RMSE and MAE,showing that these models explain nearly all of the variance in the target variable.

#Use the collect_metrics() function to check the skill of the tuned model. Describe what you see, remember dplyr functions like arrange, slice_*, and filter will work on this tibble.
collect_metrics(model_params)

# A tibble: 75 × 8
   cost_complexity min_n .metric .estimator  mean     n std_err .config         
             <dbl> <int> <chr>   <chr>      <dbl> <int>   <dbl> <chr>           
 1        1   e-10    24 mae     standard   0.185    10 0.0120  Preprocessor1_M…
 2        1   e-10    24 rmse    standard   0.331    10 0.0325  Preprocessor1_M…
 3        1   e-10    24 rsq     standard   0.962    10 0.00472 Preprocessor1_M…
 4        2.37e-10    13 mae     standard   0.171    10 0.0124  Preprocessor1_M…
 5        2.37e-10    13 rmse    standard   0.295    10 0.0283  Preprocessor1_M…
 6        2.37e-10    13 rsq     standard   0.968    10 0.00474 Preprocessor1_M…
 7        5.62e-10    33 mae     standard   0.195    10 0.0142  Preprocessor1_M…
 8        5.62e-10    33 rmse    standard   0.363    10 0.0375  Preprocessor1_M…
 9        5.62e-10    33 rsq     standard   0.958    10 0.00507 Preprocessor1_M…
10        1.33e- 9     5 mae     standard   0.168    10 0.0103  Preprocessor1_M…
# ℹ 65 more rows
…
#Please interpret the results of the first row of show_best(). What do you see? What hyperparameter set is best for this model, based on MAE?

hp_best <- select_best(model_params, metric = "mae")

#Use the select_best() function to save the best performing hyperparameter set to an object called hp_best.
collect_metrics(model_params)

# A tibble: 75 × 8
   cost_complexity min_n .metric .estimator  mean     n std_err .config         
             <dbl> <int> <chr>   <chr>      <dbl> <int>   <dbl> <chr>           
 1        1   e-10    24 mae     standard   0.185    10 0.0120  Preprocessor1_M…
 2        1   e-10    24 rmse    standard   0.331    10 0.0325  Preprocessor1_M…
 3        1   e-10    24 rsq     standard   0.962    10 0.00472 Preprocessor1_M…
 4        2.37e-10    13 mae     standard   0.171    10 0.0124  Preprocessor1_M…
 5        2.37e-10    13 rmse    standard   0.295    10 0.0283  Preprocessor1_M…
 6        2.37e-10    13 rsq     standard   0.968    10 0.00474 Preprocessor1_M…
 7        5.62e-10    33 mae     standard   0.195    10 0.0142  Preprocessor1_M…
 8        5.62e-10    33 rmse    standard   0.363    10 0.0375  Preprocessor1_M…
 9        5.62e-10    33 rsq     standard   0.958    10 0.00507 Preprocessor1_M…
10        1.33e- 9     5 mae     standard   0.168    10 0.0103  Preprocessor1_M…
# ℹ 65 more rows
…
